<?xml version="1.0" encoding="UTF-8"?>
<!-- Created with Inkscape (http://www.inkscape.org/) -->
<svg id="svg2816" width="48" height="48" version="1.1" viewBox="0 0 200 200" xml:space="preserve" xmlns="http://www.w3.org/2000/svg" xmlns:cc="http://creativecommons.org/ns#" xmlns:dc="http://purl.org/dc/elements/1.1/" xmlns:rdf="http://www.w3.org/1999/02/22-rdf-syntax-ns#"><metadata id="metadata916"><rdf:RDF><cc:Work rdf:about=""><dc:format>image/svg+xml</dc:format><dc:type rdf:resource="http://purl.org/dc/dcmitype/StillImage"/><dc:title>Flattr-Logo</dc:title></cc:Work></rdf:RDF></metadata><title id="title2901">Flattr-Logo</title><defs id="defs2820"><linearGradient id="linearGradient2840" x2="1" gradientTransform="matrix(0,140,140,0,150,250)" gradientUnits="userSpaceOnUse"><stop id="stop2842" stop-color="#ea5f29" offset="0"/><stop id="stop2844" stop-color="#fabd1f" offset="1"/></linearGradient><linearGradient id="linearGradient2860" x2="1" gradientTransform="matrix(0,-140,-140,0,160,370)" gradientUnits="userSpaceOnUse"><stop id="stop2862" stop-color="#abd33c" offset="0"/><stop id="stop2864" stop-color="#6cb02f" offset="1"/></linearGradient><clipPath id="clipPath2872"><path id="path2874" d="m0 600h840v-600h-840z"/></clipPath></defs><g id="g2826" transform="matrix(1.3,0,0,-1.3,-110,510)"><g id="g2828" transform="translate(3.4,7.4)"><g id="g2830"><g id="g2836"><g id="g2838"><path id="path2846" d="m140 380c-40 0-57-20-57-50v-80l37 30v40c0 20 0 30 20 30h20v-20-10l60 60h-40z" fill="url(#linearGradient2840)"/></g></g></g></g><g id="g2848" transform="translate(3.4,7.4)"><g id="g2850"><g id="g2856"><g id="g2858"><path id="path2866" d="m200 340v-40c0-20-10-30-20-30h-20v20 10h-10l-57-60h87c30 0 50 20 50 50v80z" fill="url(#linearGradient2860)"/></g></g></g></g><g id="g2868" transform="translate(3.4,7.4)"><g id="g2870" clip-path="url(#clipPath2872)"/></g></g></svg>
