<?xml version="1.0" encoding="UTF-8"?>
<!DOCTYPE svg  PUBLIC '-//W3C//DTD SVG 1.1//EN'  'http://www.w3.org/Graphics/SVG/1.1/DTD/svg11.dtd'>
<svg id="Icon" enable-background="new 176 176 48 48" version="1.1" viewBox="176 176 48 48" xml:space="preserve" xmlns="http://www.w3.org/2000/svg">
<linearGradient id="SVGID_1_" x1="341.76" x2="341.76" y1="90.955" y2="92.331" gradientTransform="matrix(34.722 0 0 34.722 -11667 -2982.1)" gradientUnits="userSpaceOnUse">
	<stop stop-color="#fff" offset="0"/>
	<stop stop-color="#EAEAEA" offset="1"/>
</linearGradient>
<path d="m223.9 217.93c0 3.3-2.677 5.976-5.976 5.976h-35.856c-3.301 0-5.977-2.677-5.977-5.976v-35.856c0-3.3 2.676-5.977 5.977-5.977h35.856c3.3 0 5.976 2.677 5.976 5.977v35.856z" fill="url(#SVGID_1_)"/>
<g id="uMpNp6_2_">
		<g clip-rule="evenodd" fill="#E6E6E6" fill-rule="evenodd">
			<path d="m189.9 194.72c2.914-1.658 6.069-2.337 9.31-2.542 0.12-0.954 0.149-1.837 0.35-2.679 0.791-3.312 3.165-4.683 6.668-3.773 1.127 0.292 1.867 0.438 2.934-0.515 2.311-2.062 5.875-0.683 6.584 2.326 0.498 2.12-1.342 4.508-3.559 4.616-2.615 0.129-4.131-1.131-4.623-3.817-0.029-0.16-0.174-0.358-0.318-0.429-1.154-0.558-2.381-0.843-3.652-0.648-0.975 0.15-1.658 0.819-1.926 1.731-0.291 0.989-0.393 2.034-0.596 3.162 0.938 0.131 1.699 0.246 2.465 0.343 2.117 0.267 4.117 0.924 6.004 1.904 0.477 0.247 0.793 0.22 1.236-0.07 2.57-1.688 5.793-0.64 7.064 2.144 0.711 1.554-0.018 3.753-1.684 4.966-0.234 0.169-0.482 0.53-0.471 0.791 0.184 4.017-1.959 6.692-5.1 8.719-2.518 1.624-5.336 2.396-8.328 2.69-4.792 0.471-9.258-0.362-13.299-3.041-2.427-1.607-4.08-3.784-4.553-6.735-5e-3 -0.029-0.027-0.061-0.021-0.085 0.415-1.589-0.697-2.406-1.565-3.474-2.135-2.623-0.243-5.671 2.28-6.542 1.588-0.548 3.085-0.226 4.8 0.958zm9.869-0.666c-3.928-0.092-8.131 1.347-10.652 3.525-2.672 2.31-3.826 5.586-1.7 8.884 1.006 1.559 2.438 2.637 4.063 3.467 4.158 2.122 8.543 2.405 13.037 1.466 2.799-0.586 5.309-1.781 7.322-3.892 2.145-2.247 2.564-5.235 0.855-7.812-0.719-1.084-1.713-2.071-2.775-2.828-2.928-2.084-6.301-2.808-10.15-2.81zm11.933-8.059c-1.238-3e-3 -2.285 0.977-2.307 2.157-0.021 1.173 1.111 2.263 2.332 2.242 1.211-0.019 2.227-1.032 2.225-2.222 0-1.208-1-2.175-2.25-2.177zm3.494 13.733c1.178-0.854 1.205-2.179 0.543-3.161-0.678-1.004-2.338-1.627-3.701-0.762 1.037 1.289 2.08 2.584 3.158 3.923zm-27.184-3.944c-1.372-0.867-3.173-0.107-3.705 0.807-0.7 1.201-0.453 2.406 0.592 3.112 1.035-1.303 2.062-2.597 3.113-3.919z"/>
			<path d="m199.83 209.57c-2.119 0.079-4.074-0.434-5.885-1.553-0.611-0.378-0.837-0.864-0.481-1.446 0.36-0.59 0.975-0.479 1.471-0.161 1.146 0.737 2.394 1.062 3.734 1.26 2.072 0.307 3.966-0.178 5.833-0.955 0.318-0.132 0.619-0.444 0.922-0.438 0.41 8e-3 0.982 0.126 1.184 0.41 0.287 0.405 0.168 0.943-0.383 1.25-1.991 1.105-4.104 1.717-6.395 1.633z"/>
			<path d="m192.29 201c0.028-1.087 1.041-2.013 2.142-1.958 1.092 0.054 2.057 1.053 2.035 2.108-0.023 1.114-0.96 1.972-2.138 1.958-1.208-0.014-2.069-0.904-2.039-2.108z"/>
			<path d="m207.75 201.13c-0.012 1.119-0.939 1.994-2.098 1.977-1.154-0.017-2.109-0.935-2.102-2.021 8e-3 -1.03 1.043-2.031 2.115-2.049 1.198-0.018 2.099 0.886 2.085 2.093z"/>
		</g>
</g>
<g id="uMpNp6_1_">
		<g clip-rule="evenodd" fill-rule="evenodd">
			<path d="m189.9 195.72c2.914-1.658 6.069-2.337 9.31-2.542 0.12-0.954 0.149-1.837 0.35-2.679 0.791-3.312 3.165-4.683 6.668-3.773 1.127 0.292 1.867 0.438 2.934-0.515 2.311-2.062 5.875-0.683 6.584 2.326 0.498 2.12-1.342 4.508-3.559 4.616-2.615 0.129-4.131-1.131-4.623-3.817-0.029-0.16-0.174-0.358-0.318-0.429-1.154-0.558-2.381-0.843-3.652-0.648-0.975 0.15-1.658 0.819-1.926 1.731-0.291 0.989-0.393 2.034-0.596 3.162 0.938 0.131 1.699 0.246 2.465 0.343 2.117 0.267 4.117 0.924 6.004 1.904 0.477 0.247 0.793 0.22 1.236-0.07 2.57-1.688 5.793-0.64 7.064 2.144 0.711 1.554-0.018 3.753-1.684 4.966-0.234 0.169-0.482 0.53-0.471 0.791 0.184 4.017-1.959 6.692-5.1 8.719-2.518 1.624-5.336 2.396-8.328 2.69-4.792 0.471-9.258-0.362-13.299-3.041-2.427-1.607-4.08-3.784-4.553-6.735-5e-3 -0.029-0.027-0.061-0.021-0.085 0.415-1.589-0.697-2.406-1.565-3.474-2.135-2.623-0.243-5.671 2.28-6.542 1.588-0.548 3.085-0.226 4.8 0.958zm9.869-0.666c-3.928-0.092-8.131 1.347-10.652 3.525-2.672 2.31-3.826 5.586-1.7 8.884 1.006 1.559 2.438 2.637 4.063 3.467 4.158 2.122 8.543 2.405 13.037 1.466 2.799-0.586 5.309-1.781 7.322-3.892 2.145-2.247 2.564-5.235 0.855-7.812-0.719-1.084-1.713-2.071-2.775-2.828-2.928-2.084-6.301-2.808-10.15-2.81zm11.933-8.059c-1.238-3e-3 -2.285 0.977-2.307 2.157-0.021 1.173 1.111 2.263 2.332 2.242 1.211-0.019 2.227-1.032 2.225-2.222 0-1.208-1-2.175-2.25-2.177zm3.494 13.733c1.178-0.854 1.205-2.179 0.543-3.161-0.678-1.004-2.338-1.627-3.701-0.762 1.037 1.289 2.08 2.584 3.158 3.923zm-27.184-3.944c-1.372-0.867-3.173-0.107-3.705 0.807-0.7 1.201-0.453 2.406 0.592 3.112 1.035-1.303 2.062-2.597 3.113-3.919z"/>
			<path d="m199.83 210.57c-2.119 0.079-4.074-0.434-5.885-1.553-0.611-0.378-0.837-0.864-0.481-1.446 0.36-0.59 0.975-0.479 1.471-0.161 1.146 0.737 2.394 1.062 3.734 1.26 2.072 0.307 3.966-0.178 5.833-0.955 0.318-0.132 0.619-0.444 0.922-0.438 0.41 8e-3 0.982 0.126 1.184 0.41 0.287 0.405 0.168 0.943-0.383 1.25-1.991 1.105-4.104 1.717-6.395 1.633z"/>
			<path d="m192.29 202c0.028-1.087 1.041-2.013 2.142-1.958 1.092 0.054 2.057 1.053 2.035 2.108-0.023 1.114-0.96 1.972-2.138 1.958-1.208-0.014-2.069-0.904-2.039-2.108z" fill="#f00"/>
			<path d="m207.75 202.13c-0.012 1.119-0.939 1.994-2.098 1.977-1.154-0.017-2.109-0.935-2.102-2.021 8e-3 -1.03 1.043-2.031 2.115-2.049 1.198-0.018 2.099 0.886 2.085 2.093z" fill="#f00"/>
		</g>
</g>
</svg>
